{
  "name": "uber-button",
  "version": "0.1.4",
  "title": "Uber",
  "description": "Uber button for Events and Places extension",
  "platform": "1.0.*",
  "categories": ["content"],
  "repository": {
    "type": "git",
    "url": "https://github.com/shoutem/extensions"
  },
  "screens": [
    {
      "name": "UberEventDetails",
      "title": "Screen with Uber button",
      "image": "./server/assets/images/details-medium-photo.png",
      "extends": "shoutem.events.DetailsScreenWithLargePhoto"
    },
      {
      "name": "UberPlaceDetails",
      "title": "Screen with Uber button",
      "image": "./server/assets/images/details_large.png",
      "extends": "shoutem.places.PlaceDetails"
    }
  ]
}
